<?xml version="1.0" encoding="UTF-8" standalone="no"?>
<svg width="38px" height="56px" viewBox="0 0 38 56" version="1.1" xmlns="http://www.w3.org/2000/svg" xmlns:xlink="http://www.w3.org/1999/xlink" xmlns:sketch="http://www.bohemiancoding.com/sketch/ns">
    <!-- Generator: Sketch 3.3.3 (12072) - http://www.bohemiancoding.com/sketch -->
    <title></title>
    <desc>Created with Sketch.</desc>
    <defs></defs>
    <g id="Page-1" stroke="none" stroke-width="1" fill="none" fill-rule="evenodd" sketch:type="MSPage">
        <text id="" sketch:type="MSTextLayer" font-family="FontAwesome" font-size="64" font-weight="normal" fill="#FFCC4D">
            <tspan x="1" y="51"></tspan>
        </text>
    </g>
</svg>